{
  "messages": {
    "start": "سلام %s \uD83D\uDE09\nبه سوپر سیو مسیج خوش آمدید، دسته بندی موردنظر خود را بسازید و اطلاعات مدنظرتون رو در دسته بندی دلخواهتان ذخیره کنید و هر جای از تلگرام با نوشتن نامکاربری ربات به فایل ها و نوشته های خود دسترسی پیداکنید.\nامکان ذخیره سازی تصویر، ویدئو، آهنگ، متن و فایل\nبرای دریافت اطلاعات آپلودی و ارسال به دیگران در پی وی اشخاص به صورت زیر عمل کنید:\n@%s [Category Name/ID]",
    "create_category": {
      "step_one": "✋ لطفا برای دسته بندی خود نامی انتخاب کنید، مثلا : آهنگ ها",
      "success": "دسته بندی با موفقیت ایجاد شد\uD83D\uDE09\nبرای استفاده از محتوای داخل دسته بندی متن زیر را درون گروه ها و چت های خود وارد کنید\n @%s %s",
      "length_error": "عنوان دسته بندی باید کمتر از 100 حرف باشد \uD83D\uDE15",
      "this_name_exist": "این نام برای یک دسته بندی دیگر در نظر گرفته شده است"
    },
    "insert_data_to_category": {
      "data_added_successful": "✅محتوا با موفقیت به دسته بندی '%s' اضافه شد.",
      "select": "دسته بندی ای که میخواهد محتوا در آن آپلود و ذخیره شود انتخاب کنید \uD83D\uDCD4",
      "no_category_registered": "هیچ دسته بندی از سمت شما ثبت نشده است، همین حالا یکی ایجاد کنید",
      "category_not_founded": "⭕️نمیتونم این دسته بندی رو پیدا کنم"
    },
    "delete_category": {
      "are_u_sure": "خوب شما %s را انتخاب کردید؟\nبرای حذف این دسته بندی متن 'با حذف موافقم' را ارسال کنید تا دسته بندی حذف شود.",
      "category_not_founded": "⭕️نمیتونم این دسته بندی رو پیدا کنم",
      "no_category_registered": "هیچ دسته بندی از سمت شما ثبت نشده است، همین حالا یکی ایجاد کنید \uD83D\uDE05",
      "select": "⚠️برای حذف، یکی از دسته بندی ها را انتخاب کنید، در صورت حذف تمامی محتوای داخل آن نیز حذف میشود.",
      "category_delete_success": "دسته بندی '%s' با موفقیت حذف شد. ✅",
      "delete_process_canceled": "عملیات حذف لغو شد."
    },
    "cancel": "همه چی لغو شد، بیاید دوباره /start کنیم",
    "category_name": "نام دسته بندی : %s",
    "this_type_not_support": "ما از این فرمت پشتیبانی نمیکنیم، در حال حاضر.",
    "help": "یک دستیار ذخیره ساز هوشمند، همیشه همراه شماست، دسته بندی خود را ایجاد کنید و اطلاعات خود را در آن ذخیره کنید و به صورت اینلاین به همه اطلاعات دسترسی داشته باشید \uD83D\uDE09\n\nاینلاین چیه؟\nبرای استفاده از اینلاین ربات میتونید با نوشتن نام کاربری ربات یعنی @SSMSGBot در قسمتی که پیام ارسال میکنید، و زدن یک فاصله لیست تمام دسته بندی های خود را مشاهده کنید که به همراه یک عدد در کنار اسم به شما نمایش داده میشود، شما میتوانید با وارد کردن عدد در ادامه نامکاربری ربات به اطلاعاتی که درون اون دسته بندی ذخیره کردید دسترسی داشته باشید.\uD83D\uDE43\n\nبرای ذخیره سازی اطلاعات در فرمت های داکیومنت، ویس، آهنگ، فیلم، عکس، لوکیشن، متن، کانتکت ابتدا باید یک دسته بندی با نام دلخواهتون ایجاد کنید، و سپس هر یک از اطلاعات رو دونه به دونه به ربات ارسال کنید و سپس دسته بندی موردنظر رو انتخاب کنید و به راحتی به صورت اینلاین به دیتای خود دسترسی داشته باشید. \uD83D\uDE0A\n\n@MBA4587"
  },
  "buttons": {
    "create_category": "ایجاد دسته بندی \uD83D\uDCD5",
    "delete_category": "حذف دسته بندی \uD83D\uDDD1",
    "cancel": "لغو عملیات ❌",
    "delete_confirm": "با حذف موافقم",
    "switch_inline": "استفاده به صورت اینلاین"
  }
}